Harmonize sampling️ 🎲✨
…
agglomerative_coeff <- design %>% 
  tidyr::nest(data = -c(scaling_method, dist_method, linkage_method)) %>% 
  mutate(
    scaling = map2(data, scaling_method, ~scale_data(.x, method = .y)),
    dist_mat = map2(scaling, dist_method, ~get_dist(.x, method = .y)),
    tree = map2(dist_mat, linkage_method, ~agnes(.x, method = .y)),
    ac = map(tree, ~.x$ac)
  ) %>% 
  tidyr::unnest(ac) %>% 
  arrange(-ac)

agglomerative_coeff

# A tibble: 30 × 8
   scaling_method  dist_method linkage…¹ data     scaling  dist_…² tree       ac
   <chr>           <chr>       <chr>     <list>   <list>   <list>  <list>  <dbl>
 1 standardization spearman    ward      <tibble> <tibble> <dist>  <agnes> 0.979
 2 normalization   pearson     ward      <tibble> <tibble> <dist>  <agnes> 0.977
 3 standardization pearson     ward      <tibble> <tibble> <dist>  <agnes> 0.973
 4 normalization   spearman    ward      <tibble> <tibble> <dist>  <agnes> 0.960
 5 normalization   pearson     complete  <tibble> <tibble> <dist>  <agnes> 0.959
 6 normalization   pearson     weighted  <tibble> <tibble> <dist>  <agnes> 0.945
 7 normalization   euclidean   ward      <tibble> <tibble> <dist>  <agnes> 0.931
 8 standardization spearman    complete  <tibble> <tibble> <dist>  <agnes> 0.925
 9 normalization   spearman    weighted  <tibble> <tibble> <dist>  <agnes> 0.913
10 normalization   spearman    complete  <tibble> <tibble> <dist>  <agnes> 0.913
# … with 20 more rows, and abbreviated variable names ¹​linkage_method,
#   ²​dist_mat
…
